<?xml version="1.0" encoding="iso-8859-1"?>
<!-- Generator: Adobe Illustrator 17.1.0, SVG Export Plug-In . SVG Version: 6.00 Build 0)  -->
<!DOCTYPE svg PUBLIC "-//W3C//DTD SVG 1.1//EN" "http://www.w3.org/Graphics/SVG/1.1/DTD/svg11.dtd">
<svg version="1.1" id="Capa_1" xmlns="http://www.w3.org/2000/svg" xmlns:xlink="http://www.w3.org/1999/xlink" x="0px" y="0px"
	 viewBox="0 0 264 264" style="enable-background:new 0 0 264 264;" xml:space="preserve">
<path d="M208.85,33h-32.267V2.383L208.85,33z M190.417,180c23.159,0,42,18.841,42,42s-18.841,42-42,42s-42-18.841-42-42
	S167.257,180,190.417,180z M200.959,201.685l-14.037,23.756l-6.701-8.189c-2.623-3.207-7.35-3.679-10.554-1.056
	c-3.206,2.623-3.679,7.348-1.056,10.554l13.5,16.5c1.431,1.749,3.564,2.751,5.804,2.751c0.189,0,0.38-0.007,0.57-0.021
	c2.443-0.187,4.642-1.554,5.888-3.663l19.5-33c2.107-3.566,0.925-8.165-2.642-10.272
	C207.667,196.936,203.067,198.12,200.959,201.685z M139.053,246.703l-99.825-0.453c-4.134-0.013-7.644-3.617-7.644-7.75V7.5
	c0-4.143,3.69-7.5,7.833-7.5h122.167v40.5c0,4.143,3.69,7.5,7.833,7.5h42.167v121.224c-6-2.715-13.729-4.224-21.334-4.224
	c-31.43,0-56.917,25.57-56.917,57C133.333,230.845,135.442,239.226,139.053,246.703z M63.416,76.5c0,4.143,3.357,7.5,7.5,7.5h99
	c4.143,0,7.5-3.357,7.5-7.5s-3.357-7.5-7.5-7.5h-99C66.774,69,63.416,72.357,63.416,76.5z M63.416,107.5c0,4.143,3.357,7.5,7.5,7.5
	h99c4.143,0,7.5-3.357,7.5-7.5s-3.357-7.5-7.5-7.5h-99C66.774,100,63.416,103.357,63.416,107.5z M70.916,148h99
	c4.143,0,7.5-3.357,7.5-7.5s-3.357-7.5-7.5-7.5h-99c-4.143,0-7.5,3.357-7.5,7.5S66.774,148,70.916,148z"/>
<g>
</g>
<g>
</g>
<g>
</g>
<g>
</g>
<g>
</g>
<g>
</g>
<g>
</g>
<g>
</g>
<g>
</g>
<g>
</g>
<g>
</g>
<g>
</g>
<g>
</g>
<g>
</g>
<g>
</g>
</svg>
